{
  "id": "__BASE__",
  "name": "roledeveloper",
  "screens": [
    {
      "id": "login",
      "name": "Login",
      "sourceScreenId": "login",
      "sourceAppId": "AcmeTransferRequests",
      "disableMenuSwipe": true
    },
    {
      "id": "transferform",
      "name": "TransferForm",
      "sourceScreenId": "transferform",
      "sourceAppId": "AcmeTransferRequests"
    },
    {
      "id": "confirmation",
      "name": "Confirmation",
      "sourceScreenId": "confirmation",
      "sourceAppId": "AcmeTransferRequests"
    },
    {
      "id": "settings",
      "name": "Settings",
      "modal": true,
      "sourceScreenId": "settings",
      "sourceAppId": "AcmeTransferRequests",
      "preventAutoDismiss": true
    }
  ],
  "startScreen": "login",
  "statusbarContent": "dark",
  "statusbarHidden": false,
  "statusbarBackground": null
}